Breitenbach 2.0 - DIPTERA
…
    trap %in% c('Haus E - V', 'E / V', 'E-V', 'E/V', 'Haus E/V') ~ 'E',
    trap %in% c('Haus F - VI', 'F / VI', 'F-VI', 'F-VII', 'F/VI', 'Haus F/VI') ~ 'F',
    trap %in% c('Haus G', 'G-VII', 'G/ VII', 'G/VII', 'Haus G/VII') ~ 'G',
    trap %in% c('Quelle') ~ 'Source',
    TRUE ~ trap)) |>
  select(-c(taxa_id:trap)) |>                                              # Remove unnecessary columns
  mutate(sp_name  = validated_name,                                        # Change column names
         trap     = trap_new,                                              # Change column names
         trap     = factor(trap)) |>                                       # make trap a factor
  arrange(trap, family, sp_name) |>                                        # Sort data
  select(-c(validated_name, trap_new, order)) |>                           # Remove unnecessary columns
  select(trap, sp_name, family, everything()) |>                           # rearrange columns
  print()

# A tibble: 7,077 × 39
   trap  sp_name  family `1971` `1972` `1973` `1974` `1975` `1976` `1977` `1978`
   <fct> <chr>    <chr>   <dbl>  <dbl>  <dbl>  <dbl>  <dbl>  <dbl>  <dbl>  <dbl>
 1 A     Dixa di… Dixid…      0      0      0      0      0      0      0      0
 2 A     Dixa di… Dixid…      0      0      0      0      0      0      0      0
 3 A     Dixa ne… Dixid…      0      0      0      0      0      0      0      0
 4 A     Dixa ne… Dixid…      0      0      0      0      0      0      0      0
 5 A     Dixa nu… Dixid…      0      0      0      0      0      0      0      0
 6 A     Dixa nu… Dixid…      0      0      0      0      0      0      0      0
 7 A     Dixa pu… Dixid…      0      0      0      0      0      0      0      0
 8 A     Dixa pu… Dixid…      0      0      0      0      0      0      0      0
 9 A     Dixa su… Dixid…      0      0      0      0      0      0      0      0
10 A     Dixa su… Dixid…      0      0      0      0      0      0      0      0
# ℹ 7,067 more rows
# ℹ 28 more variables: `1979` <dbl>, `1980` <dbl>, `1981` <dbl>, `1982` <dbl>,
#   `1983` <dbl>, `1984` <dbl>, `1985` <dbl>, `1986` <dbl>, `1987` <dbl>,
#   `1988` <dbl>, `1989` <dbl>, `1990` <dbl>, `1991` <dbl>, `1992` <dbl>,
#   `1993` <dbl>, `1994` <dbl>, `1995` <dbl>, `1996` <dbl>, `1997` <dbl>,
#   `1998` <dbl>, `1999` <dbl>, `2000` <dbl>, `2001` <dbl>, `2002` <dbl>,
#   `2003` <dbl>, `2004` <dbl>, `2005` <dbl>, `2006` <dbl>
…
# Clean up dataframe
TD <- TD |>
  as_tibble() |>                                                                     # Convert to tibble format for better handling
  rename(trap_code = sub_m.trap_code) |>                                             # Fix column name from earlier processing
  mutate(trap = gsub("_.*", "", trap_code),                                          # Remove everything after _ to get trap ID
         year = gsub(".*_", "", trap_code)) |>                                       # Remove everything before _ to get year
  mutate(across(-c(trap_code, trap), as.numeric)) |>                                 # Convert columns to numeric format
  select(trap_code, trap, year, everything()) |>                                     # Reorder columns: trap_code, trap, year first, then rest
  print()

# A tibble: 122 × 14
   trap_code trap   year SppRich  Simp  Shan EvenJ    E10 Abund S_PIE Turnover
   <chr>     <chr> <dbl>   <dbl> <dbl> <dbl> <dbl>  <dbl> <dbl> <dbl>    <dbl>
 1 A_1982    A      1982       9 0.854  2.02 0.921 0.225     29  8.64   NA    
 2 A_1983    A      1983     153 0.964  3.82 0.760 0.0250  4499 27.8     0.981
 3 A_1984    A      1984     130 0.948  3.51 0.722 0.0270  3005 19.2     0.454
 4 A_1985    A      1985      62 0.873  2.68 0.650 0.0433  1445  7.92    0.685
 5 A_1986    A      1986     122 0.945  3.51 0.730 0.0287  4085 18.1     0.695
 6 A_1987    A      1987      55 0.735  2.14 0.535 0.0390  2952  3.78    0.689
 7 A_1988    A      1988      63 0.849  2.63 0.635 0.0418  2718  6.62    0.405
 8 A_1989    A      1989      58 0.852  2.59 0.639 0.0447  1262  6.80    0.560
 9 A_1990    A      1990      88 0.905  2.91 0.650 0.0331  3902 10.6     0.447
10 A_1991    A      1991      51 0.845  2.41 0.612 0.0472  1881  6.46    0.521
# ℹ 112 more rows
# ℹ 3 more variables: Turnover_app <dbl>, Turnover_disapp <dbl>,
#   rare.SppRich <dbl>
…
