Breitenbach 2.0 - EPT
…
    trap %in% c('Haus F - VI', 'F / VI', 'F-VI', 'F-VII', 'F/VI', 'Haus F/VI') ~ 'F',
    trap %in% c('Haus G', 'G-VII', 'G/ VII', 'G/VII', 'Haus G/VII') ~ 'G',
    trap %in% c('Quelle') ~ 'Source',
    TRUE ~ trap)) |>
  filter(!str_detect(trap_new, "D")) |>                                    # delete rows for trap D (only sampled 1983)
  select(-c(taxa_id:trap)) |>                                              # Remove unnecessary columns
  mutate(sp_name  = validated_name,                                        # Change column names
         trap     = trap_new,                                              # Change column names
         trap     = factor(trap)) |>                                       # make trap a factor
  arrange(trap, family, sp_name) |>                                        # Sort data
  select(-c(validated_name, trap_new, order)) |>                           # Remove unnecessary columns
  select(trap, sp_name, family, everything()) |>                           # rearrange columns
  print()

# A tibble: 2,133 × 40
   trap  sp_name  family `1969` `1970` `1971` `1972` `1973` `1974` `1975` `1976`
   <fct> <chr>    <chr>   <dbl>  <dbl>  <dbl>  <dbl>  <dbl>  <dbl>  <dbl>  <dbl>
 1 A     Apatani… Apata…      0      0      0      0      0      0      0      0
 2 A     Apatani… Apata…      0      0      0      0      0      0      0      0
 3 A     Alainit… Baeti…      0      0      0      0      0      0      0      0
 4 A     Alainit… Baeti…      0      0      0      0      0      0      0      0
 5 A     Baetis … Baeti…      0      0      0      0      0      0      0      0
 6 A     Baetis … Baeti…      0      0      0      0      0      0      0      0
 7 A     Baetis … Baeti…      0      0      0      0      0      0      0      0
 8 A     Baetis … Baeti…      0      0      0      0      0      0      0      0
 9 A     Baetis … Baeti…      0      0      0      0      0      0      0      0
10 A     Baetis … Baeti…      0      0      0      0      0      0      0      0
# ℹ 2,123 more rows
# ℹ 29 more variables: `1977` <dbl>, `1978` <dbl>, `1979` <dbl>, `1980` <dbl>,
#   `1981` <dbl>, `1982` <dbl>, `1983` <dbl>, `1984` <dbl>, `1985` <dbl>,
#   `1986` <dbl>, `1987` <dbl>, `1988` <dbl>, `1989` <dbl>, `1990` <dbl>,
#   `1991` <dbl>, `1992` <dbl>, `1993` <dbl>, `1994` <dbl>, `1995` <dbl>,
#   `1996` <dbl>, `1997` <dbl>, `1998` <dbl>, `1999` <dbl>, `2000` <dbl>,
#   `2001` <dbl>, `2002` <dbl>, `2003` <dbl>, `2004` <dbl>, `2005` <dbl>
…
# Clean up dataframe
TD <- TD |>
  as_tibble() |>                                                                # Convert to tibble format for better handling
  rename(trap_code = sub_m.trap_code) |>                                        # Fix column name from earlier processing
  mutate(trap = gsub("_.*", "", trap_code),                                     # Remove everything after _ to get trap ID
         year = gsub(".*_", "", trap_code)) |>                                  # Remove everything before _ to get year
  mutate(across(-c(trap_code, trap), as.numeric)) |>                            # Convert columns to numeric format
  select(trap_code, trap, year, everything()) |>                                # Reorder columns: trap_code, trap, year first, then rest
  print()

# A tibble: 117 × 14
   trap_code trap   year SppRich  Simp  Shan EvenJ    E10 Abund S_PIE Turnover
   <chr>     <chr> <dbl>   <dbl> <dbl> <dbl> <dbl>  <dbl> <dbl> <dbl>    <dbl>
 1 A_1983    A      1983      42 0.866 2.43  0.650 0.0578 10727  7.45   NA    
 2 A_1984    A      1984      38 0.841 2.41  0.662 0.0634  9045  6.28    0.298
 3 A_1985    A      1985      41 0.748 2.11  0.567 0.0514 13255  3.96    0.319
 4 A_1986    A      1986      40 0.921 2.79  0.757 0.0698  6628 12.6     0.312
 5 A_1987    A      1987      41 0.923 2.79  0.751 0.0680 10873 12.9     0.312
 6 A_1988    A      1988      38 0.900 2.63  0.723 0.0692 13991  9.97    0.205
 7 A_1989    A      1989      39 0.280 0.828 0.226 0.0212 23568  1.39    0.289
 8 A_1990    A      1990      44 0.607 1.70  0.448 0.0385 15427  2.54    0.196
 9 A_1991    A      1991      39 0.578 1.60  0.436 0.0410 21045  2.37    0.271
10 A_1992    A      1992      37 0.826 2.19  0.608 0.0593 11607  5.74    0.233
# ℹ 107 more rows
# ℹ 3 more variables: Turnover_app <dbl>, Turnover_disapp <dbl>,
#   rare.SppRich <dbl>
…
